{
  "$schema": "http://json-schema.org/draft-06/schema#",
  "type": "object",
  "title": "OSB Service Schema",
  "additionalProperties": false,
  "properties": {
    "id": {
      "description": "",
      "type": "string"
    },
    "bindings_retrievable": {
      "description": "",
      "type": "boolean"
    },
    "instances_retrievable": {
      "description": "",
      "type": "boolean"
    },
    "name": {
      "description": "",
      "type": "string"
    },
    "description": {
      "description": "",
      "type": "string"
    },
    "tags": {
      "description": "",
      "type": "array",
      "uniqueItems": true,
      "items": {
        "type": "string"
      }
    },
    "requires": {
      "description": "",
      "type": "array",
      "uniqueItems": true,
      "items": {
        "type": "string"
      }
    },
    "bindable": {
      "description": "",
      "type": "boolean"
    },
    "metadata": {
      "description": "",
      "type": "object"
    },
    "dashboard_client": {
      "$ref": "#/definitions/dashboard_client"
    },
    "plan_updateable": {
      "description": "",
      "type": "boolean"
    },
    "plans": {
      "description": "",
      "type": "array",
      "items": {
        "$ref": "#/definitions/plan"
      },
      "minItems": 1
    }
  },
  "required": [
    "id",
    "name",
    "description",
    "bindable",
    "plans"
  ],
  "definitions": {
    "dashboard_client": {
      "description": "",
      "type": "object",
      "properties": {
        "id": {
          "description": "",
          "type": "string"
        },
        "name": {
          "description": "",
          "type": "string"
        },
        "redirect_uri": {
          "description": "",
          "type": "string"
        }
      }
    },
    "schemas": {
      "description": "",
      "type": "object",
      "properties": {
        "service_instance": {
          "description": "",
          "type": "object",
          "properties": {
            "create": {
              "$ref": "#/definitions/parameters"
            },
            "update": {
              "$ref": "#/definitions/parameters"
            }
          }
        },
        "service_binding": {
          "description": "",
          "type": "object",
          "properties": {
            "create": {
              "$ref": "#/definitions/parameters"
            }
          }
        }
      }
    },
    "parameters": {
      "description": "",
      "type": "object"
    },
    "plan": {
      "type": "object",
      "properties": {
        "name": {
          "description": "",
          "type": "string"
        },
        "id": {
          "description": "",
          "type": "string"
        },
        "description": {
          "description": "",
          "type": "string"
        },
        "metadata": {
          "description": "",
          "type": "object"
        },
        "free": {
          "description": "",
          "type": "boolean",
          "default": false
        },
        "bindable": {
          "description": "",
          "type": "boolean"
        },
        "schemas": {
          "$ref": "#/definitions/schemas"
        }
      },
      "required": [
        "id",
        "name",
        "description"
      ]
    }
  }
}
